<svg width="18" height="13" viewBox="0 0 18 13" fill="none" xmlns="http://www.w3.org/2000/svg">
<path d="M7.00072 10.1715L16.1927 0.978516L17.6077 2.39252L7.00072 12.9995L0.636719 6.63552L2.05072 5.22152L7.00072 10.1715Z" fill="#FFFFFF"/>
</svg>
