<svg width="14" height="14" viewBox="0 0 14 14" fill="none" xmlns="http://www.w3.org/2000/svg">
<path d="M7.00072 5.58574L11.9507 0.635742L13.3647 2.04974L8.41472 6.99974L13.3647 11.9497L11.9507 13.3637L7.00072 8.41374L2.05072 13.3637L0.636719 11.9497L5.58672 6.99974L0.636719 2.04974L2.05072 0.635742L7.00072 5.58574Z" fill="black"/>
</svg>
