<svg width="22" height="20" viewBox="0 0 22 20" fill="none" xmlns="http://www.w3.org/2000/svg">
<path d="M18 19.9997H4C3.73478 19.9997 3.48043 19.8943 3.29289 19.7068C3.10536 19.5192 3 19.2649 3 18.9997V9.99968H0L10.327 0.611676C10.5111 0.444154 10.7511 0.351318 11 0.351318C11.2489 0.351318 11.4889 0.444154 11.673 0.611676L22 9.99968H19V18.9997C19 19.2649 18.8946 19.5192 18.7071 19.7068C18.5196 19.8943 18.2652 19.9997 18 19.9997ZM5 17.9997H17V8.15668L11 2.70268L5 8.15668V17.9997ZM7 13.9997H15V15.9997H7V13.9997Z" fill="white"/>
</svg>
