<svg width="21" height="21" viewBox="0 0 21 21" fill="none" xmlns="http://www.w3.org/2000/svg">
<path d="M0.946815 7.31455C0.424815 7.14055 0.419815 6.85955 0.956815 6.68055L20.0438 0.318552C20.5728 0.142552 20.8758 0.438552 20.7278 0.956552L15.2738 20.0426C15.1238 20.5716 14.8188 20.5896 14.5948 20.0876L11.0008 11.9996L17.0008 3.99955L9.00081 9.99955L0.946815 7.31455Z" fill="white"/>
</svg>
