<svg width="120" height="120" viewBox="0 0 120 120" fill="none" xmlns="http://www.w3.org/2000/svg">
<circle cx="60" cy="60" r="60" fill="#112535"/>
<path d="M76.145 43.854C76.633 43.854 77.1011 44.0479 77.4462 44.393C77.7914 44.7381 77.9852 45.2062 77.9852 45.6943V55.8158C76.7651 55.8158 75.5949 56.3005 74.7321 57.1633C73.8693 58.0261 73.3846 59.1963 73.3846 60.4165C73.3846 61.6367 73.8693 62.8069 74.7321 63.6697C75.5949 64.5325 76.7651 65.0172 77.9852 65.0172V75.1387C77.9852 75.6268 77.7914 76.0949 77.4462 76.44C77.1011 76.7851 76.633 76.979 76.145 76.979H43.02C42.5319 76.979 42.0638 76.7851 41.7187 76.44C41.3736 76.0949 41.1797 75.6268 41.1797 75.1387V65.0172C42.3999 65.0172 43.5701 64.5325 44.4329 63.6697C45.2957 62.8069 45.7804 61.6367 45.7804 60.4165C45.7804 59.1963 45.2957 58.0261 44.4329 57.1633C43.5701 56.3005 42.3999 55.8158 41.1797 55.8158V45.6943C41.1797 45.2062 41.3736 44.7381 41.7187 44.393C42.0638 44.0479 42.5319 43.854 43.02 43.854H76.145ZM74.3047 47.5346H44.8602V52.9965L45.1473 53.1456C46.3956 53.8266 47.4475 54.8175 48.2018 56.023C48.956 57.2284 49.3871 58.6078 49.4536 60.0282L49.4609 60.4165C49.4612 61.9039 49.0607 63.3639 48.3017 64.643C47.5426 65.9221 46.453 66.9731 45.1473 67.6856L44.8602 67.8365V73.2984H74.3047V67.8347L74.0176 67.6874C72.7693 67.0065 71.7174 66.0155 70.9632 64.81C70.209 63.6046 69.7778 62.2252 69.7114 60.8048L69.704 60.4165C69.704 57.2807 71.4467 54.5515 74.0176 53.1474L74.3047 52.9947V47.5346Z" fill="white"/>
</svg>
